{
  "nombreApp": "Componentes",
  "rutas": [
    { "ruta": "alert", "icon": "add_alert", "texto": "Alertas" },
    { "ruta": "avatar", "icon": "accessibility", "texto": "Avatars" },
    { "ruta": "card", "icon": "folder_open", "texto": "Cards - Tarjetas" }
  ]
}
